Small Helpers and Tricks for Epidemics Analysis • epitrix
…
Make a linelist object containing toy data with several possible exposure dates for each case:

ll <- sim_linelist(30) %>%
  tibble()

x <- 0:15
y <- distcrete("gamma", 1, shape = 12, rate = 3, w = 0)$d(x)
mkexposures <- function(i) i - sample(x, size = sample.int(5, size = 1), replace = FALSE, prob = y)
exposures <- sapply(ll$date_of_onset, mkexposures)
ll$dates_exposure <- exposures

print(ll)
#> # A tibble: 30 × 6
#>       id date_of_onset date_of_report gender outcome  dates_exposure
#>    <int> <date>        <date>         <chr>  <chr>    <list>        
#>  1     1 2020-01-23    2020-02-01     male   recovery <date [1]>    
#>  2     2 2020-02-14    2020-02-22     female recovery <date [3]>    
#>  3     3 2020-01-25    2020-01-30     male   recovery <date [4]>    
#>  4     4 2020-01-16    2020-01-21     male   recovery <date [3]>    
#>  5     5 2020-01-22    2020-01-27     female recovery <date [2]>    
#>  6     6 2020-01-26    2020-02-02     male   recovery <date [2]>    
#>  7     7 2020-02-09    2020-02-17     female death    <date [5]>    
#>  8     8 2020-02-17    2020-02-23     male   recovery <date [2]>    
#>  9     9 2020-01-14    2020-01-26     male   recovery <date [4]>    
#> 10    10 2020-02-22    2020-02-26     female recovery <date [4]>    
#> # … with 20 more rows
…
